%YAML 1.1
%TAG !u! tag:unity3d.com,2011:
--- !u!114 &11400000
MonoBehaviour:
  m_ObjectHideFlags: 0
  m_CorrespondingSourceObject: {fileID: 0}
  m_PrefabInstance: {fileID: 0}
  m_PrefabAsset: {fileID: 0}
  m_GameObject: {fileID: 0}
  m_Enabled: 1
  m_EditorHideFlags: 0
  m_Script: {fileID: 11500000, guid: 13b75c95f34a00d4e8c04f76b73312e6, type: 3}
  m_Name: CoinAnimatedTile
  m_EditorClassIdentifier: 
  m_AnimatedSprites:
  - {fileID: -3283566502942721041, guid: 5934dcaa2d5f24333974070b4fc1fbea, type: 3}
  - {fileID: -4370787740228475092, guid: 5934dcaa2d5f24333974070b4fc1fbea, type: 3}
  - {fileID: -4955059259558020150, guid: 5934dcaa2d5f24333974070b4fc1fbea, type: 3}
  - {fileID: 8807910761719005708, guid: 5934dcaa2d5f24333974070b4fc1fbea, type: 3}
  m_MinSpeed: 1
  m_MaxSpeed: 1
  m_AnimationStartTime: 0
  m_AnimationStartFrame: 0
  m_TileColliderType: 0
